TYPE	SIZE.LOWER	SIZE.UPPER	SENS.HET	SENS.HOM
DEL	0	30	0	0
DEL	30	60	0	0
DEL	60	100	0	0
DEL	100	200	0.00273224043715847	0.00273224043715847
DEL	200	500	0.11325229021159	0.11325229021159
DEL	500	1000	0.378653287040958	0.378653287040958
DEL	1000	5000	0.349114331723027	0.349114331723027
DEL	5000	10000	0	0
DEL	10000	1e+05	0	0
DEL	1e+05	3e+09	0	0
OTHER	0	0	0	0
