TYPE	SIZE.LOWER	SIZE.UPPER	SENS.HET	SENS.HOM
DEL	0	30	0.735607513372127	0.735607513372127
DEL	30	60	0.696081578496833	0.696081578496833
DEL	60	100	0.684443338739004	0.684443338739004
DEL	100	200	0.108964615889274	0.108964615889274
DEL	200	500	0	0
DEL	500	1000	0	0
DEL	1000	5000	0	0
DEL	5000	10000	0	0
DEL	10000	1e+05	0	0
DEL	1e+05	3e+09	0	0
OTHER	0	0	0	0
