TYPE	SIZE.LOWER	SIZE.UPPER	SENS.HET	SENS.HOM
DEL	0	30	0.103309235771952	0.103309235771952
DEL	30	60	0.70091773451096	0.70091773451096
DEL	60	100	0.70259286769755	0.70259286769755
DEL	100	200	0.688929414781595	0.688929414781595
DEL	200	500	0.726280447215965	0.726280447215965
DEL	500	1000	0.709416076250694	0.709416076250694
DEL	1000	5000	0.714132553606238	0.714132553606238
DEL	5000	10000	0	0
DEL	10000	1e+05	0	0
DEL	1e+05	3e+09	0	0
OTHER	0	0	0	0
